# system info NIOS_II_COPROCESSOR_MINIMIND on 2017.05.17.13:27:06
system_info:
name,value
DEVICE,EP4CGX150DF31C7
DEVICE_FAMILY,Cyclone IV GX
GENERATION_ID,1495038162
#
#
# Files generated for NIOS_II_COPROCESSOR_MINIMIND on 2017.05.17.13:27:06
files:
filepath,kind,attributes,module,is_top
simulation/NIOS_II_COPROCESSOR_MINIMIND.vhd,VHDL,,NIOS_II_COPROCESSOR_MINIMIND,true
simulation/submodules/BASIC_UNIT_1.vhd,VHDL,,MINI_MIND_AVALON_INTERFACE,false
simulation/submodules/BASIC_UNIT_2.vhd,VHDL,,MINI_MIND_AVALON_INTERFACE,false
simulation/submodules/FULLY_1.vhd,VHDL,,MINI_MIND_AVALON_INTERFACE,false
simulation/submodules/FULLY_2.vhd,VHDL,,MINI_MIND_AVALON_INTERFACE,false
simulation/submodules/HT_UNIT_1.vhd,VHDL,,MINI_MIND_AVALON_INTERFACE,false
simulation/submodules/INPUT_BUFFER.vhd,VHDL,,MINI_MIND_AVALON_INTERFACE,false
simulation/submodules/LSTM_1.vhd,VHDL,,MINI_MIND_AVALON_INTERFACE,false
simulation/submodules/LSTM_2.vhd,VHDL,,MINI_MIND_AVALON_INTERFACE,false
simulation/submodules/MEMORY_CELL_1.vhd,VHDL,,MINI_MIND_AVALON_INTERFACE,false
simulation/submodules/MINI_MIND.vhd,VHDL,,MINI_MIND_AVALON_INTERFACE,false
simulation/submodules/MINI_MIND_AVALON.vhd,VHDL,,MINI_MIND_AVALON_INTERFACE,false
simulation/submodules/MINI_MIND_AVALON_INTERFACE.vhd,VHDL,,MINI_MIND_AVALON_INTERFACE,false
simulation/submodules/OUTPUT_NIOSII.vhd,VHDL,,MINI_MIND_AVALON_INTERFACE,false
simulation/submodules/UNIT_1_HT_UNIT.vhd,VHDL,,MINI_MIND_AVALON_INTERFACE,false
simulation/submodules/UNIT_1_MEMORY_CELL_1.vhd,VHDL,,MINI_MIND_AVALON_INTERFACE,false
simulation/submodules/UNIT_1_MEMORY_CELL_2.vhd,VHDL,,MINI_MIND_AVALON_INTERFACE,false
simulation/submodules/UNIT_1_MUX.vhd,VHDL,,MINI_MIND_AVALON_INTERFACE,false
simulation/submodules/UNIT_1_Wh.vhd,VHDL,,MINI_MIND_AVALON_INTERFACE,false
simulation/submodules/UNIT_1_Wx.vhd,VHDL,,MINI_MIND_AVALON_INTERFACE,false
simulation/submodules/UNIT_2_HT_UNIT.vhd,VHDL,,MINI_MIND_AVALON_INTERFACE,false
simulation/submodules/UNIT_GATE_1_ADDER.vhd,VHDL,,MINI_MIND_AVALON_INTERFACE,false
simulation/submodules/UNIT_MAC.vhd,VHDL,,MINI_MIND_AVALON_INTERFACE,false
simulation/submodules/UNIT_OUTPUT_1.vhd,VHDL,,MINI_MIND_AVALON_INTERFACE,false
simulation/submodules/UNIT_RAM_B.vhd,VHDL,,MINI_MIND_AVALON_INTERFACE,false
simulation/submodules/UNIT_RAM_INPUT_BUFFER_1.vhd,VHDL,,MINI_MIND_AVALON_INTERFACE,false
simulation/submodules/UNIT_RAM_Wh.vhd,VHDL,,MINI_MIND_AVALON_INTERFACE,false
simulation/submodules/UNIT_RAM_Wx.vhd,VHDL,,MINI_MIND_AVALON_INTERFACE,false
simulation/submodules/UNIT_REGISTER_1.vhd,VHDL,,MINI_MIND_AVALON_INTERFACE,false
simulation/submodules/UNIT_SEC_ADDER_LSTM1.vhd,VHDL,,MINI_MIND_AVALON_INTERFACE,false
simulation/submodules/UNIT_SEC_MULTI_1.vhd,VHDL,,MINI_MIND_AVALON_INTERFACE,false
simulation/submodules/UNIT_Wh_F2.vhd,VHDL,,MINI_MIND_AVALON_INTERFACE,false
simulation/submodules/adder_1.vhd,VHDL,,MINI_MIND_AVALON_INTERFACE,false
simulation/submodules/adder_2.vhd,VHDL,,MINI_MIND_AVALON_INTERFACE,false
simulation/submodules/logic_comparator_sigmoid.vhd,VHDL,,MINI_MIND_AVALON_INTERFACE,false
simulation/submodules/logic_comparator_tanh.vhd,VHDL,,MINI_MIND_AVALON_INTERFACE,false
simulation/submodules/multi1.vhd,VHDL,,MINI_MIND_AVALON_INTERFACE,false
simulation/submodules/multionly.vhd,VHDL,,MINI_MIND_AVALON_INTERFACE,false
simulation/submodules/sigmoidvhdl.vhd,VHDL,,MINI_MIND_AVALON_INTERFACE,false
simulation/submodules/tanhvhdl.vhd,VHDL,,MINI_MIND_AVALON_INTERFACE,false
simulation/submodules/NIOS_II_COPROCESSOR_MINIMIND_jtag_uart_0.vhd,VHDL,,NIOS_II_COPROCESSOR_MINIMIND_jtag_uart_0,false
simulation/submodules/NIOS_II_COPROCESSOR_MINIMIND_nios2_qsys_0.sdc,SDC,,NIOS_II_COPROCESSOR_MINIMIND_nios2_qsys_0,false
simulation/submodules/NIOS_II_COPROCESSOR_MINIMIND_nios2_qsys_0.vhd,VHDL,,NIOS_II_COPROCESSOR_MINIMIND_nios2_qsys_0,false
simulation/submodules/NIOS_II_COPROCESSOR_MINIMIND_nios2_qsys_0_jtag_debug_module_sysclk.vhd,VHDL,,NIOS_II_COPROCESSOR_MINIMIND_nios2_qsys_0,false
simulation/submodules/NIOS_II_COPROCESSOR_MINIMIND_nios2_qsys_0_jtag_debug_module_tck.vhd,VHDL,,NIOS_II_COPROCESSOR_MINIMIND_nios2_qsys_0,false
simulation/submodules/NIOS_II_COPROCESSOR_MINIMIND_nios2_qsys_0_jtag_debug_module_wrapper.vhd,VHDL,,NIOS_II_COPROCESSOR_MINIMIND_nios2_qsys_0,false
simulation/submodules/NIOS_II_COPROCESSOR_MINIMIND_nios2_qsys_0_nios2_waves.do,OTHER,,NIOS_II_COPROCESSOR_MINIMIND_nios2_qsys_0,false
simulation/submodules/NIOS_II_COPROCESSOR_MINIMIND_nios2_qsys_0_ociram_default_contents.dat,DAT,,NIOS_II_COPROCESSOR_MINIMIND_nios2_qsys_0,false
simulation/submodules/NIOS_II_COPROCESSOR_MINIMIND_nios2_qsys_0_ociram_default_contents.hex,HEX,,NIOS_II_COPROCESSOR_MINIMIND_nios2_qsys_0,false
simulation/submodules/NIOS_II_COPROCESSOR_MINIMIND_nios2_qsys_0_ociram_default_contents.mif,MIF,,NIOS_II_COPROCESSOR_MINIMIND_nios2_qsys_0,false
simulation/submodules/NIOS_II_COPROCESSOR_MINIMIND_nios2_qsys_0_oci_test_bench.vhd,VHDL,,NIOS_II_COPROCESSOR_MINIMIND_nios2_qsys_0,false
simulation/submodules/NIOS_II_COPROCESSOR_MINIMIND_nios2_qsys_0_rf_ram_a.dat,DAT,,NIOS_II_COPROCESSOR_MINIMIND_nios2_qsys_0,false
simulation/submodules/NIOS_II_COPROCESSOR_MINIMIND_nios2_qsys_0_rf_ram_a.hex,HEX,,NIOS_II_COPROCESSOR_MINIMIND_nios2_qsys_0,false
simulation/submodules/NIOS_II_COPROCESSOR_MINIMIND_nios2_qsys_0_rf_ram_a.mif,MIF,,NIOS_II_COPROCESSOR_MINIMIND_nios2_qsys_0,false
simulation/submodules/NIOS_II_COPROCESSOR_MINIMIND_nios2_qsys_0_rf_ram_b.dat,DAT,,NIOS_II_COPROCESSOR_MINIMIND_nios2_qsys_0,false
simulation/submodules/NIOS_II_COPROCESSOR_MINIMIND_nios2_qsys_0_rf_ram_b.hex,HEX,,NIOS_II_COPROCESSOR_MINIMIND_nios2_qsys_0,false
simulation/submodules/NIOS_II_COPROCESSOR_MINIMIND_nios2_qsys_0_rf_ram_b.mif,MIF,,NIOS_II_COPROCESSOR_MINIMIND_nios2_qsys_0,false
simulation/submodules/NIOS_II_COPROCESSOR_MINIMIND_nios2_qsys_0_test_bench.vhd,VHDL,,NIOS_II_COPROCESSOR_MINIMIND_nios2_qsys_0,false
simulation/submodules/NIOS_II_COPROCESSOR_MINIMIND_onchip_memory2_0.hex,HEX,,NIOS_II_COPROCESSOR_MINIMIND_onchip_memory2_0,false
simulation/submodules/NIOS_II_COPROCESSOR_MINIMIND_onchip_memory2_0.vhd,VHDL,,NIOS_II_COPROCESSOR_MINIMIND_onchip_memory2_0,false
simulation/submodules/NIOS_II_COPROCESSOR_MINIMIND_mm_interconnect_0.vhd,VHDL,,NIOS_II_COPROCESSOR_MINIMIND_mm_interconnect_0,false
simulation/submodules/nios_ii_coprocessor_minimind_mm_interconnect_0_jtag_uart_0_avalon_jtag_slave_translator.vhd,VHDL,,NIOS_II_COPROCESSOR_MINIMIND_mm_interconnect_0,false
simulation/submodules/nios_ii_coprocessor_minimind_mm_interconnect_0_mini_mind_new_component_v2_0_avalon_slave_0_translator.vhd,VHDL,,NIOS_II_COPROCESSOR_MINIMIND_mm_interconnect_0,false
simulation/submodules/nios_ii_coprocessor_minimind_mm_interconnect_0_nios2_qsys_0_jtag_debug_module_translator.vhd,VHDL,,NIOS_II_COPROCESSOR_MINIMIND_mm_interconnect_0,false
simulation/submodules/nios_ii_coprocessor_minimind_mm_interconnect_0_onchip_memory2_0_s1_translator.vhd,VHDL,,NIOS_II_COPROCESSOR_MINIMIND_mm_interconnect_0,false
simulation/submodules/nios_ii_coprocessor_minimind_mm_interconnect_0_nios2_qsys_0_data_master_translator.vhd,VHDL,,NIOS_II_COPROCESSOR_MINIMIND_mm_interconnect_0,false
simulation/submodules/nios_ii_coprocessor_minimind_mm_interconnect_0_nios2_qsys_0_instruction_master_translator.vhd,VHDL,,NIOS_II_COPROCESSOR_MINIMIND_mm_interconnect_0,false
simulation/submodules/NIOS_II_COPROCESSOR_MINIMIND_irq_mapper.vho,VHDL,,NIOS_II_COPROCESSOR_MINIMIND_irq_mapper,false
simulation/submodules/mentor/altera_reset_controller.v,VERILOG_ENCRYPT,MENTOR_SPECIFIC,altera_reset_controller,false
simulation/submodules/mentor/altera_reset_synchronizer.v,VERILOG_ENCRYPT,MENTOR_SPECIFIC,altera_reset_controller,false
simulation/submodules/aldec/altera_reset_controller.v,VERILOG_ENCRYPT,ALDEC_SPECIFIC,altera_reset_controller,false
simulation/submodules/aldec/altera_reset_synchronizer.v,VERILOG_ENCRYPT,ALDEC_SPECIFIC,altera_reset_controller,false
simulation/submodules/mentor/altera_merlin_master_translator.sv,SYSTEM_VERILOG_ENCRYPT,MENTOR_SPECIFIC,altera_merlin_master_translator,false
simulation/submodules/aldec/altera_merlin_master_translator.sv,SYSTEM_VERILOG_ENCRYPT,ALDEC_SPECIFIC,altera_merlin_master_translator,false
simulation/submodules/mentor/altera_merlin_slave_translator.sv,SYSTEM_VERILOG_ENCRYPT,MENTOR_SPECIFIC,altera_merlin_slave_translator,false
simulation/submodules/aldec/altera_merlin_slave_translator.sv,SYSTEM_VERILOG_ENCRYPT,ALDEC_SPECIFIC,altera_merlin_slave_translator,false
simulation/submodules/mentor/altera_merlin_master_agent.sv,SYSTEM_VERILOG_ENCRYPT,MENTOR_SPECIFIC,altera_merlin_master_agent,false
simulation/submodules/aldec/altera_merlin_master_agent.sv,SYSTEM_VERILOG_ENCRYPT,ALDEC_SPECIFIC,altera_merlin_master_agent,false
simulation/submodules/mentor/altera_merlin_slave_agent.sv,SYSTEM_VERILOG_ENCRYPT,MENTOR_SPECIFIC,altera_merlin_slave_agent,false
simulation/submodules/mentor/altera_merlin_burst_uncompressor.sv,SYSTEM_VERILOG_ENCRYPT,MENTOR_SPECIFIC,altera_merlin_slave_agent,false
simulation/submodules/aldec/altera_merlin_slave_agent.sv,SYSTEM_VERILOG_ENCRYPT,ALDEC_SPECIFIC,altera_merlin_slave_agent,false
simulation/submodules/aldec/altera_merlin_burst_uncompressor.sv,SYSTEM_VERILOG_ENCRYPT,ALDEC_SPECIFIC,altera_merlin_slave_agent,false
simulation/submodules/NIOS_II_COPROCESSOR_MINIMIND_mm_interconnect_0_jtag_uart_0_avalon_jtag_slave_agent_rsp_fifo.vho,VHDL,,NIOS_II_COPROCESSOR_MINIMIND_mm_interconnect_0_jtag_uart_0_avalon_jtag_slave_agent_rsp_fifo,false
simulation/submodules/NIOS_II_COPROCESSOR_MINIMIND_mm_interconnect_0_router.vho,VHDL,,NIOS_II_COPROCESSOR_MINIMIND_mm_interconnect_0_router,false
simulation/submodules/NIOS_II_COPROCESSOR_MINIMIND_mm_interconnect_0_router_001.vho,VHDL,,NIOS_II_COPROCESSOR_MINIMIND_mm_interconnect_0_router_001,false
simulation/submodules/NIOS_II_COPROCESSOR_MINIMIND_mm_interconnect_0_router_002.vho,VHDL,,NIOS_II_COPROCESSOR_MINIMIND_mm_interconnect_0_router_002,false
simulation/submodules/NIOS_II_COPROCESSOR_MINIMIND_mm_interconnect_0_router_004.vho,VHDL,,NIOS_II_COPROCESSOR_MINIMIND_mm_interconnect_0_router_004,false
simulation/submodules/NIOS_II_COPROCESSOR_MINIMIND_mm_interconnect_0_cmd_demux.vho,VHDL,,NIOS_II_COPROCESSOR_MINIMIND_mm_interconnect_0_cmd_demux,false
simulation/submodules/NIOS_II_COPROCESSOR_MINIMIND_mm_interconnect_0_cmd_demux_001.vho,VHDL,,NIOS_II_COPROCESSOR_MINIMIND_mm_interconnect_0_cmd_demux_001,false
simulation/submodules/NIOS_II_COPROCESSOR_MINIMIND_mm_interconnect_0_cmd_mux.vho,VHDL,,NIOS_II_COPROCESSOR_MINIMIND_mm_interconnect_0_cmd_mux,false
simulation/submodules/NIOS_II_COPROCESSOR_MINIMIND_mm_interconnect_0_cmd_mux_002.vho,VHDL,,NIOS_II_COPROCESSOR_MINIMIND_mm_interconnect_0_cmd_mux_002,false
simulation/submodules/NIOS_II_COPROCESSOR_MINIMIND_mm_interconnect_0_rsp_demux.vho,VHDL,,NIOS_II_COPROCESSOR_MINIMIND_mm_interconnect_0_rsp_demux,false
simulation/submodules/NIOS_II_COPROCESSOR_MINIMIND_mm_interconnect_0_rsp_mux.vho,VHDL,,NIOS_II_COPROCESSOR_MINIMIND_mm_interconnect_0_rsp_mux,false
simulation/submodules/NIOS_II_COPROCESSOR_MINIMIND_mm_interconnect_0_rsp_mux_001.vho,VHDL,,NIOS_II_COPROCESSOR_MINIMIND_mm_interconnect_0_rsp_mux_001,false
simulation/submodules/NIOS_II_COPROCESSOR_MINIMIND_mm_interconnect_0_avalon_st_adapter.vhd,VHDL,,NIOS_II_COPROCESSOR_MINIMIND_mm_interconnect_0_avalon_st_adapter,false
simulation/submodules/NIOS_II_COPROCESSOR_MINIMIND_mm_interconnect_0_avalon_st_adapter_error_adapter_0.vho,VHDL,,NIOS_II_COPROCESSOR_MINIMIND_mm_interconnect_0_avalon_st_adapter_error_adapter_0,false
#
# Map from instance-path to kind of module
instances:
instancePath,module
NIOS_II_COPROCESSOR_MINIMIND.MINI_MIND_NEW_COMPONENT_V2_0,MINI_MIND_AVALON_INTERFACE
NIOS_II_COPROCESSOR_MINIMIND.jtag_uart_0,NIOS_II_COPROCESSOR_MINIMIND_jtag_uart_0
NIOS_II_COPROCESSOR_MINIMIND.nios2_qsys_0,NIOS_II_COPROCESSOR_MINIMIND_nios2_qsys_0
NIOS_II_COPROCESSOR_MINIMIND.onchip_memory2_0,NIOS_II_COPROCESSOR_MINIMIND_onchip_memory2_0
NIOS_II_COPROCESSOR_MINIMIND.mm_interconnect_0,NIOS_II_COPROCESSOR_MINIMIND_mm_interconnect_0
NIOS_II_COPROCESSOR_MINIMIND.mm_interconnect_0.nios2_qsys_0_data_master_translator,altera_merlin_master_translator
NIOS_II_COPROCESSOR_MINIMIND.mm_interconnect_0.nios2_qsys_0_instruction_master_translator,altera_merlin_master_translator
NIOS_II_COPROCESSOR_MINIMIND.mm_interconnect_0.nios2_qsys_0_data_master_translator,altera_merlin_master_translator
NIOS_II_COPROCESSOR_MINIMIND.mm_interconnect_0.nios2_qsys_0_instruction_master_translator,altera_merlin_master_translator
NIOS_II_COPROCESSOR_MINIMIND.mm_interconnect_0.jtag_uart_0_avalon_jtag_slave_translator,altera_merlin_slave_translator
NIOS_II_COPROCESSOR_MINIMIND.mm_interconnect_0.MINI_MIND_NEW_COMPONENT_V2_0_avalon_slave_0_translator,altera_merlin_slave_translator
NIOS_II_COPROCESSOR_MINIMIND.mm_interconnect_0.nios2_qsys_0_jtag_debug_module_translator,altera_merlin_slave_translator
NIOS_II_COPROCESSOR_MINIMIND.mm_interconnect_0.onchip_memory2_0_s1_translator,altera_merlin_slave_translator
NIOS_II_COPROCESSOR_MINIMIND.mm_interconnect_0.jtag_uart_0_avalon_jtag_slave_translator,altera_merlin_slave_translator
NIOS_II_COPROCESSOR_MINIMIND.mm_interconnect_0.MINI_MIND_NEW_COMPONENT_V2_0_avalon_slave_0_translator,altera_merlin_slave_translator
NIOS_II_COPROCESSOR_MINIMIND.mm_interconnect_0.nios2_qsys_0_jtag_debug_module_translator,altera_merlin_slave_translator
NIOS_II_COPROCESSOR_MINIMIND.mm_interconnect_0.onchip_memory2_0_s1_translator,altera_merlin_slave_translator
NIOS_II_COPROCESSOR_MINIMIND.mm_interconnect_0.nios2_qsys_0_data_master_agent,altera_merlin_master_agent
NIOS_II_COPROCESSOR_MINIMIND.mm_interconnect_0.nios2_qsys_0_instruction_master_agent,altera_merlin_master_agent
NIOS_II_COPROCESSOR_MINIMIND.mm_interconnect_0.jtag_uart_0_avalon_jtag_slave_agent,altera_merlin_slave_agent
NIOS_II_COPROCESSOR_MINIMIND.mm_interconnect_0.MINI_MIND_NEW_COMPONENT_V2_0_avalon_slave_0_agent,altera_merlin_slave_agent
NIOS_II_COPROCESSOR_MINIMIND.mm_interconnect_0.nios2_qsys_0_jtag_debug_module_agent,altera_merlin_slave_agent
NIOS_II_COPROCESSOR_MINIMIND.mm_interconnect_0.onchip_memory2_0_s1_agent,altera_merlin_slave_agent
NIOS_II_COPROCESSOR_MINIMIND.mm_interconnect_0.jtag_uart_0_avalon_jtag_slave_agent_rsp_fifo,NIOS_II_COPROCESSOR_MINIMIND_mm_interconnect_0_jtag_uart_0_avalon_jtag_slave_agent_rsp_fifo
NIOS_II_COPROCESSOR_MINIMIND.mm_interconnect_0.MINI_MIND_NEW_COMPONENT_V2_0_avalon_slave_0_agent_rsp_fifo,NIOS_II_COPROCESSOR_MINIMIND_mm_interconnect_0_jtag_uart_0_avalon_jtag_slave_agent_rsp_fifo
NIOS_II_COPROCESSOR_MINIMIND.mm_interconnect_0.nios2_qsys_0_jtag_debug_module_agent_rsp_fifo,NIOS_II_COPROCESSOR_MINIMIND_mm_interconnect_0_jtag_uart_0_avalon_jtag_slave_agent_rsp_fifo
NIOS_II_COPROCESSOR_MINIMIND.mm_interconnect_0.onchip_memory2_0_s1_agent_rsp_fifo,NIOS_II_COPROCESSOR_MINIMIND_mm_interconnect_0_jtag_uart_0_avalon_jtag_slave_agent_rsp_fifo
NIOS_II_COPROCESSOR_MINIMIND.mm_interconnect_0.router,NIOS_II_COPROCESSOR_MINIMIND_mm_interconnect_0_router
NIOS_II_COPROCESSOR_MINIMIND.mm_interconnect_0.router_001,NIOS_II_COPROCESSOR_MINIMIND_mm_interconnect_0_router_001
NIOS_II_COPROCESSOR_MINIMIND.mm_interconnect_0.router_002,NIOS_II_COPROCESSOR_MINIMIND_mm_interconnect_0_router_002
NIOS_II_COPROCESSOR_MINIMIND.mm_interconnect_0.router_003,NIOS_II_COPROCESSOR_MINIMIND_mm_interconnect_0_router_002
NIOS_II_COPROCESSOR_MINIMIND.mm_interconnect_0.router_004,NIOS_II_COPROCESSOR_MINIMIND_mm_interconnect_0_router_004
NIOS_II_COPROCESSOR_MINIMIND.mm_interconnect_0.router_005,NIOS_II_COPROCESSOR_MINIMIND_mm_interconnect_0_router_004
NIOS_II_COPROCESSOR_MINIMIND.mm_interconnect_0.cmd_demux,NIOS_II_COPROCESSOR_MINIMIND_mm_interconnect_0_cmd_demux
NIOS_II_COPROCESSOR_MINIMIND.mm_interconnect_0.cmd_demux_001,NIOS_II_COPROCESSOR_MINIMIND_mm_interconnect_0_cmd_demux_001
NIOS_II_COPROCESSOR_MINIMIND.mm_interconnect_0.rsp_demux_002,NIOS_II_COPROCESSOR_MINIMIND_mm_interconnect_0_cmd_demux_001
NIOS_II_COPROCESSOR_MINIMIND.mm_interconnect_0.rsp_demux_003,NIOS_II_COPROCESSOR_MINIMIND_mm_interconnect_0_cmd_demux_001
NIOS_II_COPROCESSOR_MINIMIND.mm_interconnect_0.cmd_mux,NIOS_II_COPROCESSOR_MINIMIND_mm_interconnect_0_cmd_mux
NIOS_II_COPROCESSOR_MINIMIND.mm_interconnect_0.cmd_mux_001,NIOS_II_COPROCESSOR_MINIMIND_mm_interconnect_0_cmd_mux
NIOS_II_COPROCESSOR_MINIMIND.mm_interconnect_0.cmd_mux_002,NIOS_II_COPROCESSOR_MINIMIND_mm_interconnect_0_cmd_mux_002
NIOS_II_COPROCESSOR_MINIMIND.mm_interconnect_0.cmd_mux_003,NIOS_II_COPROCESSOR_MINIMIND_mm_interconnect_0_cmd_mux_002
NIOS_II_COPROCESSOR_MINIMIND.mm_interconnect_0.rsp_demux,NIOS_II_COPROCESSOR_MINIMIND_mm_interconnect_0_rsp_demux
NIOS_II_COPROCESSOR_MINIMIND.mm_interconnect_0.rsp_demux_001,NIOS_II_COPROCESSOR_MINIMIND_mm_interconnect_0_rsp_demux
NIOS_II_COPROCESSOR_MINIMIND.mm_interconnect_0.rsp_mux,NIOS_II_COPROCESSOR_MINIMIND_mm_interconnect_0_rsp_mux
NIOS_II_COPROCESSOR_MINIMIND.mm_interconnect_0.rsp_mux_001,NIOS_II_COPROCESSOR_MINIMIND_mm_interconnect_0_rsp_mux_001
NIOS_II_COPROCESSOR_MINIMIND.mm_interconnect_0.avalon_st_adapter,NIOS_II_COPROCESSOR_MINIMIND_mm_interconnect_0_avalon_st_adapter
NIOS_II_COPROCESSOR_MINIMIND.mm_interconnect_0.avalon_st_adapter.error_adapter_0,NIOS_II_COPROCESSOR_MINIMIND_mm_interconnect_0_avalon_st_adapter_error_adapter_0
NIOS_II_COPROCESSOR_MINIMIND.mm_interconnect_0.avalon_st_adapter_001,NIOS_II_COPROCESSOR_MINIMIND_mm_interconnect_0_avalon_st_adapter
NIOS_II_COPROCESSOR_MINIMIND.mm_interconnect_0.avalon_st_adapter_001.error_adapter_0,NIOS_II_COPROCESSOR_MINIMIND_mm_interconnect_0_avalon_st_adapter_error_adapter_0
NIOS_II_COPROCESSOR_MINIMIND.mm_interconnect_0.avalon_st_adapter_002,NIOS_II_COPROCESSOR_MINIMIND_mm_interconnect_0_avalon_st_adapter
NIOS_II_COPROCESSOR_MINIMIND.mm_interconnect_0.avalon_st_adapter_002.error_adapter_0,NIOS_II_COPROCESSOR_MINIMIND_mm_interconnect_0_avalon_st_adapter_error_adapter_0
NIOS_II_COPROCESSOR_MINIMIND.mm_interconnect_0.avalon_st_adapter_003,NIOS_II_COPROCESSOR_MINIMIND_mm_interconnect_0_avalon_st_adapter
NIOS_II_COPROCESSOR_MINIMIND.mm_interconnect_0.avalon_st_adapter_003.error_adapter_0,NIOS_II_COPROCESSOR_MINIMIND_mm_interconnect_0_avalon_st_adapter_error_adapter_0
NIOS_II_COPROCESSOR_MINIMIND.irq_mapper,NIOS_II_COPROCESSOR_MINIMIND_irq_mapper
NIOS_II_COPROCESSOR_MINIMIND.rst_controller,altera_reset_controller
