Info: Starting: Create simulation model
Info: qsys-generate M:\FINALCODE_MINI_MIND\NIOS_II_COPROCESSOR_MINIMIND\NIOS_II_COPROCESSOR_MINIMIND.qsys --simulation=VHDL --output-directory=M:\FINALCODE_MINI_MIND\NIOS_II_COPROCESSOR_MINIMIND\NIOS_II_COPROCESSOR_MINIMIND\simulation --family="Cyclone IV GX" --part=EP4CGX150DF31C7
Progress: Loading NIOS_II_COPROCESSOR_MINIMIND/NIOS_II_COPROCESSOR_MINIMIND.qsys
Progress: Reading input file
Progress: Adding MINI_MIND_NEW_COMPONENT_V2_0 [MINI_MIND_NEW_COMPONENT_V2 1.0]
Progress: Parameterizing module MINI_MIND_NEW_COMPONENT_V2_0
Progress: Adding clk_0 [clock_source 15.0]
Progress: Parameterizing module clk_0
Progress: Adding jtag_uart_0 [altera_avalon_jtag_uart 15.0]
Progress: Parameterizing module jtag_uart_0
Progress: Adding nios2_qsys_0 [altera_nios2_qsys 15.0]
Progress: Parameterizing module nios2_qsys_0
Progress: Adding onchip_memory2_0 [altera_avalon_onchip_memory2 15.0]
Progress: Parameterizing module onchip_memory2_0
Progress: Building connections
Progress: Parameterizing connections
Progress: Validating
Progress: Done reading input file
Warning: NIOS_II_COPROCESSOR_MINIMIND.nios2_qsys_0: Nios II Classic cores are now superseded by improved Gen 2 cores.
Info: NIOS_II_COPROCESSOR_MINIMIND: Generating NIOS_II_COPROCESSOR_MINIMIND "NIOS_II_COPROCESSOR_MINIMIND" for SIM_VHDL
Info: MINI_MIND_NEW_COMPONENT_V2_0: "NIOS_II_COPROCESSOR_MINIMIND" instantiated MINI_MIND_NEW_COMPONENT_V2 "MINI_MIND_NEW_COMPONENT_V2_0"
Info: jtag_uart_0: Starting RTL generation for module 'NIOS_II_COPROCESSOR_MINIMIND_jtag_uart_0'
Info: jtag_uart_0:   Generation command is [exec C:/altera/15.0/quartus/bin64/perl/bin/perl.exe -I C:/altera/15.0/quartus/bin64/perl/lib -I C:/altera/15.0/quartus/sopc_builder/bin/europa -I C:/altera/15.0/quartus/sopc_builder/bin/perl_lib -I C:/altera/15.0/quartus/sopc_builder/bin -I C:/altera/15.0/quartus/../ip/altera/sopc_builder_ip/common -I C:/altera/15.0/quartus/../ip/altera/sopc_builder_ip/altera_avalon_jtag_uart -- C:/altera/15.0/quartus/../ip/altera/sopc_builder_ip/altera_avalon_jtag_uart/generate_rtl.pl --name=NIOS_II_COPROCESSOR_MINIMIND_jtag_uart_0 --dir=C:/Users/MIJAIL~1/AppData/Local/Temp/alt7303_8229491962652421935.dir/0002_jtag_uart_0_gen/ --quartus_dir=C:/altera/15.0/quartus --vhdl --config=C:/Users/MIJAIL~1/AppData/Local/Temp/alt7303_8229491962652421935.dir/0002_jtag_uart_0_gen//NIOS_II_COPROCESSOR_MINIMIND_jtag_uart_0_component_configuration.pl  --do_build_sim=1    --sim_dir=C:/Users/MIJAIL~1/AppData/Local/Temp/alt7303_8229491962652421935.dir/0002_jtag_uart_0_gen/  ]
Info: jtag_uart_0: Done RTL generation for module 'NIOS_II_COPROCESSOR_MINIMIND_jtag_uart_0'
Info: jtag_uart_0: "NIOS_II_COPROCESSOR_MINIMIND" instantiated altera_avalon_jtag_uart "jtag_uart_0"
Info: nios2_qsys_0: Starting RTL generation for module 'NIOS_II_COPROCESSOR_MINIMIND_nios2_qsys_0'
Info: nios2_qsys_0:   Generation command is [exec C:/altera/15.0/quartus/bin64/eperlcmd.exe -I C:/altera/15.0/quartus/bin64/perl/lib -I C:/altera/15.0/quartus/sopc_builder/bin/europa -I C:/altera/15.0/quartus/sopc_builder/bin/perl_lib -I C:/altera/15.0/quartus/sopc_builder/bin -I C:/altera/15.0/quartus/../ip/altera/nios2_ip/altera_nios2/cpu_lib -I C:/altera/15.0/quartus/../ip/altera/nios2_ip/altera_nios2/nios_lib -I C:/altera/15.0/quartus/../ip/altera/nios2_ip/altera_nios2 -I C:/altera/15.0/quartus/../ip/altera/nios2_ip/altera_nios2 -- C:/altera/15.0/quartus/../ip/altera/nios2_ip/altera_nios2/generate_rtl.epl --name=NIOS_II_COPROCESSOR_MINIMIND_nios2_qsys_0 --dir=C:/Users/MIJAIL~1/AppData/Local/Temp/alt7303_8229491962652421935.dir/0003_nios2_qsys_0_gen/ --quartus_bindir=C:/altera/15.0/quartus/bin64 --vhdl --config=C:/Users/MIJAIL~1/AppData/Local/Temp/alt7303_8229491962652421935.dir/0003_nios2_qsys_0_gen//NIOS_II_COPROCESSOR_MINIMIND_nios2_qsys_0_processor_configuration.pl  --do_build_sim=1    --sim_dir=C:/Users/MIJAIL~1/AppData/Local/Temp/alt7303_8229491962652421935.dir/0003_nios2_qsys_0_gen/  ]
Info: nios2_qsys_0: # 2017.05.17 13:22:55 (*) Starting Nios II generation
Info: nios2_qsys_0: # 2017.05.17 13:22:55 (*)   Checking for plaintext license.
Info: nios2_qsys_0: # 2017.05.17 13:22:57 (*)   Plaintext license not found.
Info: nios2_qsys_0: # 2017.05.17 13:22:57 (*)   No license required to generate encrypted Nios II/e.
Info: nios2_qsys_0: # 2017.05.17 13:22:57 (*)   Elaborating CPU configuration settings
Info: nios2_qsys_0: # 2017.05.17 13:22:57 (*)   Creating all objects for CPU
Info: nios2_qsys_0: # 2017.05.17 13:22:59 (*)   Creating 'C:/Users/MIJAIL~1/AppData/Local/Temp/alt7303_8229491962652421935.dir/0003_nios2_qsys_0_gen//NIOS_II_COPROCESSOR_MINIMIND_nios2_qsys_0_nios2_waves.do'
Info: nios2_qsys_0: # 2017.05.17 13:22:59 (*)   Generating RTL from CPU objects
Info: nios2_qsys_0: # 2017.05.17 13:22:59 (*)   Creating plain-text RTL
Info: nios2_qsys_0: # 2017.05.17 13:23:05 (*) Done Nios II generation
Info: nios2_qsys_0: Done RTL generation for module 'NIOS_II_COPROCESSOR_MINIMIND_nios2_qsys_0'
Info: nios2_qsys_0: "NIOS_II_COPROCESSOR_MINIMIND" instantiated altera_nios2_qsys "nios2_qsys_0"
Info: onchip_memory2_0: Starting RTL generation for module 'NIOS_II_COPROCESSOR_MINIMIND_onchip_memory2_0'
Info: onchip_memory2_0:   Generation command is [exec C:/altera/15.0/quartus/bin64/perl/bin/perl.exe -I C:/altera/15.0/quartus/bin64/perl/lib -I C:/altera/15.0/quartus/sopc_builder/bin/europa -I C:/altera/15.0/quartus/sopc_builder/bin/perl_lib -I C:/altera/15.0/quartus/sopc_builder/bin -I C:/altera/15.0/quartus/../ip/altera/sopc_builder_ip/common -I C:/altera/15.0/quartus/../ip/altera/sopc_builder_ip/altera_avalon_onchip_memory2 -- C:/altera/15.0/quartus/../ip/altera/sopc_builder_ip/altera_avalon_onchip_memory2/generate_rtl.pl --name=NIOS_II_COPROCESSOR_MINIMIND_onchip_memory2_0 --dir=C:/Users/MIJAIL~1/AppData/Local/Temp/alt7303_8229491962652421935.dir/0004_onchip_memory2_0_gen/ --quartus_dir=C:/altera/15.0/quartus --vhdl --config=C:/Users/MIJAIL~1/AppData/Local/Temp/alt7303_8229491962652421935.dir/0004_onchip_memory2_0_gen//NIOS_II_COPROCESSOR_MINIMIND_onchip_memory2_0_component_configuration.pl  --do_build_sim=1    --sim_dir=C:/Users/MIJAIL~1/AppData/Local/Temp/alt7303_8229491962652421935.dir/0004_onchip_memory2_0_gen/  ]
Info: onchip_memory2_0: Done RTL generation for module 'NIOS_II_COPROCESSOR_MINIMIND_onchip_memory2_0'
Info: onchip_memory2_0: "NIOS_II_COPROCESSOR_MINIMIND" instantiated altera_avalon_onchip_memory2 "onchip_memory2_0"
Info: avalon_st_adapter: Inserting error_adapter: error_adapter_0
Info: avalon_st_adapter_001: Inserting error_adapter: error_adapter_0
Info: avalon_st_adapter_002: Inserting error_adapter: error_adapter_0
Info: avalon_st_adapter_003: Inserting error_adapter: error_adapter_0
Info: mm_interconnect_0: "NIOS_II_COPROCESSOR_MINIMIND" instantiated altera_mm_interconnect "mm_interconnect_0"
Info: irq_mapper: Generating VHDL simulation model
Info: irq_mapper: Generated simulation model NIOS_II_COPROCESSOR_MINIMIND_irq_mapper.vho
Info: irq_mapper: "NIOS_II_COPROCESSOR_MINIMIND" instantiated altera_irq_mapper "irq_mapper"
Info: rst_controller: "NIOS_II_COPROCESSOR_MINIMIND" instantiated altera_reset_controller "rst_controller"
Info: nios2_qsys_0_data_master_translator: "mm_interconnect_0" instantiated altera_merlin_master_translator "nios2_qsys_0_data_master_translator"
Info: jtag_uart_0_avalon_jtag_slave_translator: "mm_interconnect_0" instantiated altera_merlin_slave_translator "jtag_uart_0_avalon_jtag_slave_translator"
Info: nios2_qsys_0_data_master_agent: "mm_interconnect_0" instantiated altera_merlin_master_agent "nios2_qsys_0_data_master_agent"
Info: jtag_uart_0_avalon_jtag_slave_agent: "mm_interconnect_0" instantiated altera_merlin_slave_agent "jtag_uart_0_avalon_jtag_slave_agent"
Info: jtag_uart_0_avalon_jtag_slave_agent_rsp_fifo: Generating VHDL simulation model
Info: jtag_uart_0_avalon_jtag_slave_agent_rsp_fifo: Generated simulation model NIOS_II_COPROCESSOR_MINIMIND_mm_interconnect_0_jtag_uart_0_avalon_jtag_slave_agent_rsp_fifo.vho
Info: jtag_uart_0_avalon_jtag_slave_agent_rsp_fifo: "mm_interconnect_0" instantiated altera_avalon_sc_fifo "jtag_uart_0_avalon_jtag_slave_agent_rsp_fifo"
Info: router: "mm_interconnect_0" instantiated altera_merlin_router "router"
Info: router_001: "mm_interconnect_0" instantiated altera_merlin_router "router_001"
Info: router_002: "mm_interconnect_0" instantiated altera_merlin_router "router_002"
Info: router_004: "mm_interconnect_0" instantiated altera_merlin_router "router_004"
Info: cmd_demux: Generating VHDL simulation model
Info: cmd_demux: Generated simulation model NIOS_II_COPROCESSOR_MINIMIND_mm_interconnect_0_cmd_demux.vho
Info: cmd_demux: "mm_interconnect_0" instantiated altera_merlin_demultiplexer "cmd_demux"
Info: cmd_demux_001: Generating VHDL simulation model
Info: cmd_demux_001: Generated simulation model NIOS_II_COPROCESSOR_MINIMIND_mm_interconnect_0_cmd_demux_001.vho
Info: cmd_demux_001: "mm_interconnect_0" instantiated altera_merlin_demultiplexer "cmd_demux_001"
Info: cmd_mux: Generating VHDL simulation model
Info: cmd_mux: Generated simulation model NIOS_II_COPROCESSOR_MINIMIND_mm_interconnect_0_cmd_mux.vho
Info: cmd_mux: "mm_interconnect_0" instantiated altera_merlin_multiplexer "cmd_mux"
Info: cmd_mux_002: Generating VHDL simulation model
Info: cmd_mux_002: Generated simulation model NIOS_II_COPROCESSOR_MINIMIND_mm_interconnect_0_cmd_mux_002.vho
Info: cmd_mux_002: "mm_interconnect_0" instantiated altera_merlin_multiplexer "cmd_mux_002"
Info: rsp_demux: Generating VHDL simulation model
Info: rsp_demux: Generated simulation model NIOS_II_COPROCESSOR_MINIMIND_mm_interconnect_0_rsp_demux.vho
Info: rsp_demux: "mm_interconnect_0" instantiated altera_merlin_demultiplexer "rsp_demux"
Info: rsp_mux: Generating VHDL simulation model
Info: rsp_mux: Generated simulation model NIOS_II_COPROCESSOR_MINIMIND_mm_interconnect_0_rsp_mux.vho
Info: rsp_mux: "mm_interconnect_0" instantiated altera_merlin_multiplexer "rsp_mux"
Info: rsp_mux_001: Generating VHDL simulation model
Info: rsp_mux_001: Generated simulation model NIOS_II_COPROCESSOR_MINIMIND_mm_interconnect_0_rsp_mux_001.vho
Info: rsp_mux_001: "mm_interconnect_0" instantiated altera_merlin_multiplexer "rsp_mux_001"
Info: avalon_st_adapter: "mm_interconnect_0" instantiated altera_avalon_st_adapter "avalon_st_adapter"
Info: error_adapter_0: "avalon_st_adapter" instantiated error_adapter "error_adapter_0"
Info: NIOS_II_COPROCESSOR_MINIMIND: Done "NIOS_II_COPROCESSOR_MINIMIND" with 26 modules, 96 files
Info: ip-generate succeeded.
Info: Finished: Create simulation model
Info: Starting: Create Modelsim Project.
Info: sim-script-gen --spd=M:\FINALCODE_MINI_MIND\NIOS_II_COPROCESSOR_MINIMIND\NIOS_II_COPROCESSOR_MINIMIND\NIOS_II_COPROCESSOR_MINIMIND.spd --output-directory=M:/FINALCODE_MINI_MIND/NIOS_II_COPROCESSOR_MINIMIND/NIOS_II_COPROCESSOR_MINIMIND/simulation/ --use-relative-paths=true
Info: Doing: ip-make-simscript --spd=M:\FINALCODE_MINI_MIND\NIOS_II_COPROCESSOR_MINIMIND\NIOS_II_COPROCESSOR_MINIMIND\NIOS_II_COPROCESSOR_MINIMIND.spd --output-directory=M:/FINALCODE_MINI_MIND/NIOS_II_COPROCESSOR_MINIMIND/NIOS_II_COPROCESSOR_MINIMIND/simulation/ --use-relative-paths=true
Info: Generating the following file(s) for MODELSIM simulator in M:/FINALCODE_MINI_MIND/NIOS_II_COPROCESSOR_MINIMIND/NIOS_II_COPROCESSOR_MINIMIND/simulation/ directory:
Info: 	mentor/msim_setup.tcl
Info: Skipping VCS script generation since VHDL file $QUARTUS_INSTALL_DIR/eda/sim_lib/altera_syn_attributes.vhd is required for simulation
Info: Generating the following file(s) for VCSMX simulator in M:/FINALCODE_MINI_MIND/NIOS_II_COPROCESSOR_MINIMIND/NIOS_II_COPROCESSOR_MINIMIND/simulation/ directory:
Info: 	synopsys/vcsmx/synopsys_sim.setup
Info: 	synopsys/vcsmx/vcsmx_setup.sh
Info: Generating the following file(s) for NCSIM simulator in M:/FINALCODE_MINI_MIND/NIOS_II_COPROCESSOR_MINIMIND/NIOS_II_COPROCESSOR_MINIMIND/simulation/ directory:
Info: 	cadence/cds.lib
Info: 	cadence/hdl.var
Info: 	cadence/ncsim_setup.sh
Info: 	20 .cds.lib files in cadence/cds_libs/ directory
Info: Generating the following file(s) for RIVIERA simulator in M:/FINALCODE_MINI_MIND/NIOS_II_COPROCESSOR_MINIMIND/NIOS_II_COPROCESSOR_MINIMIND/simulation/ directory:
Info: 	aldec/rivierapro_setup.tcl
Info: Finished: Create Modelsim Project.
Info: Starting: Create block symbol file (.bsf)
Info: qsys-generate M:\FINALCODE_MINI_MIND\NIOS_II_COPROCESSOR_MINIMIND\NIOS_II_COPROCESSOR_MINIMIND.qsys --block-symbol-file --output-directory=M:\FINALCODE_MINI_MIND\NIOS_II_COPROCESSOR_MINIMIND\NIOS_II_COPROCESSOR_MINIMIND --family="Cyclone IV GX" --part=EP4CGX150DF31C7
Progress: Loading NIOS_II_COPROCESSOR_MINIMIND/NIOS_II_COPROCESSOR_MINIMIND.qsys
Progress: Reading input file
Progress: Adding MINI_MIND_NEW_COMPONENT_V2_0 [MINI_MIND_NEW_COMPONENT_V2 1.0]
Progress: Parameterizing module MINI_MIND_NEW_COMPONENT_V2_0
Progress: Adding clk_0 [clock_source 15.0]
Progress: Parameterizing module clk_0
Progress: Adding jtag_uart_0 [altera_avalon_jtag_uart 15.0]
Progress: Parameterizing module jtag_uart_0
Progress: Adding nios2_qsys_0 [altera_nios2_qsys 15.0]
Progress: Parameterizing module nios2_qsys_0
Progress: Adding onchip_memory2_0 [altera_avalon_onchip_memory2 15.0]
Progress: Parameterizing module onchip_memory2_0
Progress: Building connections
Progress: Parameterizing connections
Progress: Validating
Progress: Done reading input file
Warning: NIOS_II_COPROCESSOR_MINIMIND.nios2_qsys_0: Nios II Classic cores are now superseded by improved Gen 2 cores.
Info: ip-generate succeeded.
Info: Finished: Create block symbol file (.bsf)
Info: 
Info: Starting: Create HDL design files for synthesis
Info: qsys-generate M:\FINALCODE_MINI_MIND\NIOS_II_COPROCESSOR_MINIMIND\NIOS_II_COPROCESSOR_MINIMIND.qsys --synthesis=VHDL --output-directory=M:\FINALCODE_MINI_MIND\NIOS_II_COPROCESSOR_MINIMIND\NIOS_II_COPROCESSOR_MINIMIND\synthesis --family="Cyclone IV GX" --part=EP4CGX150DF31C7
Progress: Loading NIOS_II_COPROCESSOR_MINIMIND/NIOS_II_COPROCESSOR_MINIMIND.qsys
Progress: Reading input file
Progress: Adding MINI_MIND_NEW_COMPONENT_V2_0 [MINI_MIND_NEW_COMPONENT_V2 1.0]
Progress: Parameterizing module MINI_MIND_NEW_COMPONENT_V2_0
Progress: Adding clk_0 [clock_source 15.0]
Progress: Parameterizing module clk_0
Progress: Adding jtag_uart_0 [altera_avalon_jtag_uart 15.0]
Progress: Parameterizing module jtag_uart_0
Progress: Adding nios2_qsys_0 [altera_nios2_qsys 15.0]
Progress: Parameterizing module nios2_qsys_0
Progress: Adding onchip_memory2_0 [altera_avalon_onchip_memory2 15.0]
Progress: Parameterizing module onchip_memory2_0
Progress: Building connections
Progress: Parameterizing connections
Progress: Validating
Progress: Done reading input file
Warning: NIOS_II_COPROCESSOR_MINIMIND.nios2_qsys_0: Nios II Classic cores are now superseded by improved Gen 2 cores.
Info: NIOS_II_COPROCESSOR_MINIMIND: Generating NIOS_II_COPROCESSOR_MINIMIND "NIOS_II_COPROCESSOR_MINIMIND" for QUARTUS_SYNTH
Info: MINI_MIND_NEW_COMPONENT_V2_0: "NIOS_II_COPROCESSOR_MINIMIND" instantiated MINI_MIND_NEW_COMPONENT_V2 "MINI_MIND_NEW_COMPONENT_V2_0"
Info: jtag_uart_0: Starting RTL generation for module 'NIOS_II_COPROCESSOR_MINIMIND_jtag_uart_0'
Info: jtag_uart_0:   Generation command is [exec C:/altera/15.0/quartus/bin64/perl/bin/perl.exe -I C:/altera/15.0/quartus/bin64/perl/lib -I C:/altera/15.0/quartus/sopc_builder/bin/europa -I C:/altera/15.0/quartus/sopc_builder/bin/perl_lib -I C:/altera/15.0/quartus/sopc_builder/bin -I C:/altera/15.0/quartus/../ip/altera/sopc_builder_ip/common -I C:/altera/15.0/quartus/../ip/altera/sopc_builder_ip/altera_avalon_jtag_uart -- C:/altera/15.0/quartus/../ip/altera/sopc_builder_ip/altera_avalon_jtag_uart/generate_rtl.pl --name=NIOS_II_COPROCESSOR_MINIMIND_jtag_uart_0 --dir=C:/Users/MIJAIL~1/AppData/Local/Temp/alt7303_8229491962652421935.dir/0054_jtag_uart_0_gen/ --quartus_dir=C:/altera/15.0/quartus --verilog --config=C:/Users/MIJAIL~1/AppData/Local/Temp/alt7303_8229491962652421935.dir/0054_jtag_uart_0_gen//NIOS_II_COPROCESSOR_MINIMIND_jtag_uart_0_component_configuration.pl  --do_build_sim=0  ]
Info: jtag_uart_0: Done RTL generation for module 'NIOS_II_COPROCESSOR_MINIMIND_jtag_uart_0'
Info: jtag_uart_0: "NIOS_II_COPROCESSOR_MINIMIND" instantiated altera_avalon_jtag_uart "jtag_uart_0"
Info: nios2_qsys_0: Starting RTL generation for module 'NIOS_II_COPROCESSOR_MINIMIND_nios2_qsys_0'
Info: nios2_qsys_0:   Generation command is [exec C:/altera/15.0/quartus/bin64/eperlcmd.exe -I C:/altera/15.0/quartus/bin64/perl/lib -I C:/altera/15.0/quartus/sopc_builder/bin/europa -I C:/altera/15.0/quartus/sopc_builder/bin/perl_lib -I C:/altera/15.0/quartus/sopc_builder/bin -I C:/altera/15.0/quartus/../ip/altera/nios2_ip/altera_nios2/cpu_lib -I C:/altera/15.0/quartus/../ip/altera/nios2_ip/altera_nios2/nios_lib -I C:/altera/15.0/quartus/../ip/altera/nios2_ip/altera_nios2 -I C:/altera/15.0/quartus/../ip/altera/nios2_ip/altera_nios2 -- C:/altera/15.0/quartus/../ip/altera/nios2_ip/altera_nios2/generate_rtl.epl --name=NIOS_II_COPROCESSOR_MINIMIND_nios2_qsys_0 --dir=C:/Users/MIJAIL~1/AppData/Local/Temp/alt7303_8229491962652421935.dir/0055_nios2_qsys_0_gen/ --quartus_bindir=C:/altera/15.0/quartus/bin64 --verilog --config=C:/Users/MIJAIL~1/AppData/Local/Temp/alt7303_8229491962652421935.dir/0055_nios2_qsys_0_gen//NIOS_II_COPROCESSOR_MINIMIND_nios2_qsys_0_processor_configuration.pl  --do_build_sim=0  ]
Info: nios2_qsys_0: # 2017.05.17 13:27:17 (*) Starting Nios II generation
Info: nios2_qsys_0: # 2017.05.17 13:27:17 (*)   Checking for plaintext license.
Info: nios2_qsys_0: # 2017.05.17 13:27:20 (*)   Plaintext license not found.
Info: nios2_qsys_0: # 2017.05.17 13:27:20 (*)   No license required to generate encrypted Nios II/e.
Info: nios2_qsys_0: # 2017.05.17 13:27:20 (*)   Elaborating CPU configuration settings
Info: nios2_qsys_0: # 2017.05.17 13:27:20 (*)   Creating all objects for CPU
Info: nios2_qsys_0: # 2017.05.17 13:27:22 (*)   Generating RTL from CPU objects
Info: nios2_qsys_0: # 2017.05.17 13:27:22 (*)   Creating plain-text RTL
Info: nios2_qsys_0: # 2017.05.17 13:27:25 (*) Done Nios II generation
Info: nios2_qsys_0: Done RTL generation for module 'NIOS_II_COPROCESSOR_MINIMIND_nios2_qsys_0'
Info: nios2_qsys_0: "NIOS_II_COPROCESSOR_MINIMIND" instantiated altera_nios2_qsys "nios2_qsys_0"
Info: onchip_memory2_0: Starting RTL generation for module 'NIOS_II_COPROCESSOR_MINIMIND_onchip_memory2_0'
Info: onchip_memory2_0:   Generation command is [exec C:/altera/15.0/quartus/bin64/perl/bin/perl.exe -I C:/altera/15.0/quartus/bin64/perl/lib -I C:/altera/15.0/quartus/sopc_builder/bin/europa -I C:/altera/15.0/quartus/sopc_builder/bin/perl_lib -I C:/altera/15.0/quartus/sopc_builder/bin -I C:/altera/15.0/quartus/../ip/altera/sopc_builder_ip/common -I C:/altera/15.0/quartus/../ip/altera/sopc_builder_ip/altera_avalon_onchip_memory2 -- C:/altera/15.0/quartus/../ip/altera/sopc_builder_ip/altera_avalon_onchip_memory2/generate_rtl.pl --name=NIOS_II_COPROCESSOR_MINIMIND_onchip_memory2_0 --dir=C:/Users/MIJAIL~1/AppData/Local/Temp/alt7303_8229491962652421935.dir/0056_onchip_memory2_0_gen/ --quartus_dir=C:/altera/15.0/quartus --verilog --config=C:/Users/MIJAIL~1/AppData/Local/Temp/alt7303_8229491962652421935.dir/0056_onchip_memory2_0_gen//NIOS_II_COPROCESSOR_MINIMIND_onchip_memory2_0_component_configuration.pl  --do_build_sim=0  ]
Info: onchip_memory2_0: Done RTL generation for module 'NIOS_II_COPROCESSOR_MINIMIND_onchip_memory2_0'
Info: onchip_memory2_0: "NIOS_II_COPROCESSOR_MINIMIND" instantiated altera_avalon_onchip_memory2 "onchip_memory2_0"
Info: avalon_st_adapter: Inserting error_adapter: error_adapter_0
Info: avalon_st_adapter_001: Inserting error_adapter: error_adapter_0
Info: avalon_st_adapter_002: Inserting error_adapter: error_adapter_0
Info: avalon_st_adapter_003: Inserting error_adapter: error_adapter_0
Info: mm_interconnect_0: "NIOS_II_COPROCESSOR_MINIMIND" instantiated altera_mm_interconnect "mm_interconnect_0"
Info: irq_mapper: "NIOS_II_COPROCESSOR_MINIMIND" instantiated altera_irq_mapper "irq_mapper"
Info: rst_controller: "NIOS_II_COPROCESSOR_MINIMIND" instantiated altera_reset_controller "rst_controller"
Info: nios2_qsys_0_data_master_translator: "mm_interconnect_0" instantiated altera_merlin_master_translator "nios2_qsys_0_data_master_translator"
Info: jtag_uart_0_avalon_jtag_slave_translator: "mm_interconnect_0" instantiated altera_merlin_slave_translator "jtag_uart_0_avalon_jtag_slave_translator"
Info: nios2_qsys_0_data_master_agent: "mm_interconnect_0" instantiated altera_merlin_master_agent "nios2_qsys_0_data_master_agent"
Info: jtag_uart_0_avalon_jtag_slave_agent: "mm_interconnect_0" instantiated altera_merlin_slave_agent "jtag_uart_0_avalon_jtag_slave_agent"
Info: jtag_uart_0_avalon_jtag_slave_agent_rsp_fifo: "mm_interconnect_0" instantiated altera_avalon_sc_fifo "jtag_uart_0_avalon_jtag_slave_agent_rsp_fifo"
Info: router: "mm_interconnect_0" instantiated altera_merlin_router "router"
Info: router_001: "mm_interconnect_0" instantiated altera_merlin_router "router_001"
Info: router_002: "mm_interconnect_0" instantiated altera_merlin_router "router_002"
Info: router_004: "mm_interconnect_0" instantiated altera_merlin_router "router_004"
Info: cmd_demux: "mm_interconnect_0" instantiated altera_merlin_demultiplexer "cmd_demux"
Info: cmd_demux_001: "mm_interconnect_0" instantiated altera_merlin_demultiplexer "cmd_demux_001"
Info: cmd_mux: "mm_interconnect_0" instantiated altera_merlin_multiplexer "cmd_mux"
Info: cmd_mux_002: "mm_interconnect_0" instantiated altera_merlin_multiplexer "cmd_mux_002"
Info: Reusing file M:/FINALCODE_MINI_MIND/NIOS_II_COPROCESSOR_MINIMIND/NIOS_II_COPROCESSOR_MINIMIND/synthesis/submodules/altera_merlin_arbitrator.sv
Info: rsp_demux: "mm_interconnect_0" instantiated altera_merlin_demultiplexer "rsp_demux"
Info: rsp_mux: "mm_interconnect_0" instantiated altera_merlin_multiplexer "rsp_mux"
Info: Reusing file M:/FINALCODE_MINI_MIND/NIOS_II_COPROCESSOR_MINIMIND/NIOS_II_COPROCESSOR_MINIMIND/synthesis/submodules/altera_merlin_arbitrator.sv
Info: rsp_mux_001: "mm_interconnect_0" instantiated altera_merlin_multiplexer "rsp_mux_001"
Info: Reusing file M:/FINALCODE_MINI_MIND/NIOS_II_COPROCESSOR_MINIMIND/NIOS_II_COPROCESSOR_MINIMIND/synthesis/submodules/altera_merlin_arbitrator.sv
Info: avalon_st_adapter: "mm_interconnect_0" instantiated altera_avalon_st_adapter "avalon_st_adapter"
Info: error_adapter_0: "avalon_st_adapter" instantiated error_adapter "error_adapter_0"
Info: NIOS_II_COPROCESSOR_MINIMIND: Done "NIOS_II_COPROCESSOR_MINIMIND" with 26 modules, 78 files
Info: ip-generate succeeded.
Info: Finished: Create HDL design files for synthesis
